{"aggs" : {
    "group_year" : {
        "terms" : { 
          "field" : "fields.year",
          "order" : { "note_moyenne" : "asc" }
        },
        "aggs" : {
            "note_moyenne" : {"avg" : {"field" : "fields.rating"}},
            "note_min" : {"min" : {"field" : "fields.rating"}},
            "note_max" : {"max" : {"field" : "fields.rating"}}
        }
}}}
